
gramatica 1
expr = - expr expr1 | funcall expr1 | dec expr1 | id expr1 
		| unop expr expr1 | '(' expr ')' expr1

expr1 = vazio | binop expr1 | * expr1 | / expr1 | && expr1


gramatica 2

Expr        = Expr1 BinOp Expr | Expr1 | Expr1 * Expr | Expr1 / Expr | Expr1 && Expr
            
Expr1       = - DECIMAL |- ID |UnOp DECIMAL |UnOp ID | '(' ID ')' |  '(' DECIMAL ')' | funcall | DECIMAL | ID 
